…
gr <- goose_race()
gr
#> $locations
#> # A tibble: 100 x 3
#>        x     y obstacle_present
#>    <int> <int>            <dbl>
#>  1     1     1                0
#>  2     1     2                0
#>  3     1     3                0
#>  4     1     4                0
#>  5     1     5                0
#>  6     1     6                0
#>  7     1     7                0
#>  8     1     8                0
#>  9     1     9                0
#> 10     1    10                0
#> # … with 90 more rows
…
