Useful functions for developing ML and AI processes • lab
…
library(lab)
library(tidyverse)
#> ── Attaching packages ────────────────────────────────────────────────────────────────────────────────────────────────────── tidyverse 1.3.0 ──
#> ✓ ggplot2 3.3.0     ✓ purrr   0.3.3
#> ✓ tibble  2.1.3     ✓ dplyr   0.8.5
#> ✓ tidyr   1.0.2     ✓ stringr 1.4.0
#> ✓ readr   1.3.1     ✓ forcats 0.5.0
#> ── Conflicts ───────────────────────────────────────────────────────────────────────────────────────────────────────── tidyverse_conflicts() ──
#> x dplyr::filter() masks stats::filter()
#> x dplyr::lag()    masks stats::lag()

gr <- goose_race()
gr
#> $locations
#> # A tibble: 100 x 3
#>        x     y obstacle_present
#>    <int> <int>            <dbl>
#>  1     1     1                0
#>  2     1     2                0
#>  3     1     3                0
#>  4     1     4                0
#>  5     1     5                0
#>  6     1     6                0
#>  7     1     7                0
#>  8     1     8                0
#>  9     1     9                0
#> 10     1    10                0
#> # … with 90 more rows
…
